<?xml version="1.0" encoding="UTF-8"?>
<svg width="77px" height="132px" viewBox="0 0 77 132" version="1.1" xmlns="http://www.w3.org/2000/svg" xmlns:xlink="http://www.w3.org/1999/xlink">
    <title>Badge</title>
    <defs>
        <polygon id="path-1" points="0.312172032 0.154635448 65.6696326 0.154635448 65.6696326 73.9489392 0.312172032 73.9489392"></polygon>
        <linearGradient x1="74.1940398%" y1="12.4118999%" x2="34.4559913%" y2="95.3358506%" id="linearGradient-3">
            <stop stop-color="#FFDE78" offset="0%"></stop>
            <stop stop-color="#FFBA3B" offset="100%"></stop>
        </linearGradient>
        <linearGradient x1="84.4444309%" y1="12.8705377%" x2="24.6029157%" y2="88.5369465%" id="linearGradient-4">
            <stop stop-color="#FFD06D" offset="0%"></stop>
            <stop stop-color="#F99912" offset="100%"></stop>
        </linearGradient>
    </defs>
    <g id="⚙️-Symbols" stroke="none" stroke-width="1" fill="none" fill-rule="evenodd">
        <g id="28)-Widgets/1)-Advanced/Congratulations" transform="translate(-236.000000, 0.000000)">
            <g id="Badge" transform="translate(236.000000, 0.000000)">
                <polygon id="Fill-1" fill="#6359CF" points="56.5002052 0 32 62 51.0750015 62 77 0"></polygon>
                <g id="Group-4" transform="translate(7.000000, 58.000000)">
                    <mask id="mask-2" fill="white">
                        <use xlink:href="#path-1"></use>
                    </mask>
                    <g id="Clip-3"></g>
                    <path d="M20.2910182,10.9655595 L20.2910182,5.56810862 C20.2910182,4.69058121 21.0033488,3.97574147 21.8787085,3.97574147 L44.1030961,3.97574147 C44.9784558,3.97574147 45.6907864,4.69058121 45.6907864,5.56810862 L45.6907864,10.9655595 C41.7866903,9.31238991 37.4950929,8.39829886 32.9909023,8.39829886 C28.4867117,8.39829886 24.1951143,9.31238991 20.2910182,10.9655595 M49.5010793,12.8828912 L49.5010793,5.56810862 C49.5010793,2.58303645 47.079401,0.154635448 44.1030961,0.154635448 L21.8787085,0.154635448 C18.9024036,0.154635448 16.4811349,2.58303645 16.4811349,5.56810862 L16.4811349,12.8828912 C6.80752947,18.5736729 0.312172032,29.11304 0.312172032,41.1737012 C0.312172032,59.275169 14.9425991,73.9491035 32.9909023,73.9491035 C51.0387959,73.9491035 65.6696326,59.275169 65.6696326,41.1737012 C65.6696326,29.11304 59.1746848,18.5736729 49.5010793,12.8828912" id="Fill-2" fill="url(#linearGradient-3)" mask="url(#mask-2)"></path>
                </g>
                <path d="M39.9995835,126 C25.1114916,126 13,114.112612 13,99.5004088 C13,84.8873882 25.1114916,73 39.9995835,73 C54.8876753,73 67,84.8873882 67,99.5004088 C67,114.112612 54.8876753,126 39.9995835,126" id="Fill-5" fill="url(#linearGradient-4)"></path>
                <path d="M45.7719543,108.738408 L40.4431045,106.496656 L40.4431045,106.496656 L35.0936333,108.689266 C34.0715832,109.108178 32.9034526,108.619238 32.4845405,107.597188 C32.3656011,107.307003 32.3165706,106.992914 32.3414082,106.680285 L32.805967,100.83291 L32.805967,100.83291 L29.0552357,96.3246475 C28.3487918,95.4755239 28.4644565,94.2144874 29.3135801,93.5080435 C29.5490081,93.3121748 29.8262731,93.1729885 30.1239971,93.1012162 L35.7742958,91.7390987 L35.7742958,91.7390987 L38.8248494,86.7903241 C39.4044616,85.8500457 40.6365763,85.5576679 41.5768548,86.13728 C41.8477492,86.3042664 42.0748864,86.5334839 42.2393961,86.8058894 L45.2452326,91.783142 L45.2452326,91.783142 L50.8831663,93.1971466 C51.9545537,93.4658526 52.6052555,94.552213 52.3365494,95.6236003 C52.2620537,95.9206304 52.1203449,96.1965871 51.9223473,96.4301968 L48.130941,100.903531 L48.130941,100.903531 L48.5425573,106.754541 C48.6200718,107.856387 47.7896868,108.812448 46.6878405,108.889962 C46.374884,108.911979 46.0611372,108.860062 45.7719543,108.738408 Z" id="Fill-105" fill="#FFEFB9"></path>
                <polygon id="Fill-116" fill="#c7253d" points="1.5262791e-13 0 22.7693525 0 52 63 30.6168186 63"></polygon>
            </g>
        </g>
    </g>
</svg>
